{
    "nixpkgs": {
        "branch": "nixpkgs-unstable",
        "description": "Nix Packages collection",
        "homepage": "",
        "owner": "NixOS",
        "repo": "nixpkgs",
        "rev": "1da52dd49a127ad74486b135898da2cef8c62665",
        "sha256": "0szvkaqj3r7f8zx6ydibgyw7lmvlqzs37m90g5hglsjpkpsif719",
        "type": "tarball",
        "url": "https://github.com/NixOS/nixpkgs/archive/1da52dd49a127ad74486b135898da2cef8c62665.tar.gz",
        "url_template": "https://github.com/<owner>/<repo>/archive/<rev>.tar.gz"
    },
    "nixpkgs_master": {
        "branch": "master",
        "description": "Nix Packages collection",
        "homepage": "",
        "owner": "NixOS",
        "repo": "nixpkgs",
        "rev": "91f1e05e59ec746cfd390eb5c6296b49ce05f73c",
        "sha256": "0ym3v62dyjzhhjbm8lk564898dq0lb1ijpm4h6abir1w7qqgg2v7",
        "type": "tarball",
        "url": "https://github.com/NixOS/nixpkgs/archive/91f1e05e59ec746cfd390eb5c6296b49ce05f73c.tar.gz",
        "url_template": "https://github.com/<owner>/<repo>/archive/<rev>.tar.gz"
    },
    "nixpkgs_old": {
        "branch": "nixos-23.05",
        "description": "Nix Packages collection",
        "homepage": "",
        "owner": "NixOS",
        "repo": "nixpkgs",
        "rev": "70bdadeb94ffc8806c0570eb5c2695ad29f0e421",
        "sha256": "05cbl1k193c9la9xhlz4y6y8ijpb2mkaqrab30zij6z4kqgclsrd",
        "type": "tarball",
        "url": "https://github.com/NixOS/nixpkgs/archive/70bdadeb94ffc8806c0570eb5c2695ad29f0e421.tar.gz",
        "url_template": "https://github.com/<owner>/<repo>/archive/<rev>.tar.gz"
    }
}
